<?xml version="1.0" encoding="utf-8"?>
<!-- Generator: Adobe Illustrator 18.1.1, SVG Export Plug-In . SVG Version: 6.00 Build 0)  -->
<svg version="1.1" id="Layer_1" xmlns="http://www.w3.org/2000/svg" xmlns:xlink="http://www.w3.org/1999/xlink" x="0px" y="0px"
	 viewBox="0 0 1437.4 1341.4" enable-background="new 0 0 1437.4 1341.4" xml:space="preserve">
<rect x="0" y="0" fill="#F2F2F2" width="1437.4" height="1341.4"/>
<g>
</g>
<g>
	<path fill="#004E9A" d="M765,72H637c-2.2,0-4-1.8-4-4V31.6c0-2.2,1.8-4,4-4H765c2.2,0,4,1.8,4,4V68C769,70.2,767.2,72,765,72z"/>
	<g>
		<rect x="632.4" y="44.2" fill="none" width="135.8" height="21.1"/>
		<text transform="matrix(1 0 0 1 664.3323 54.1837)" fill="#FFFFFF" font-family="'Montserrat-Medium'" font-size="14">DIRECTORS</text>
	</g>
</g>
<g>
	<g>
		<path fill="#004E9A" d="M335.8,263.1H209c-2.3,0-4.1-1.8-4.1-4.1v-36.2c0-2.3,1.8-4.1,4.1-4.1h126.8c2.3,0,4.1,1.8,4.1,4.1V259
			C339.9,261.2,338,263.1,335.8,263.1z"/>
		<g>
			<rect x="205.2" y="235.3" fill="none" width="134" height="21.1"/>
			<text transform="matrix(1 0 0 1 228.2321 245.2496)" fill="#FFFFFF" font-family="'Montserrat-Medium'" font-size="14">COMMERCIAL</text>
		</g>
	</g>
	<g>
		<path fill="#FFFFFF" d="M337.8,333.2H207.5c-1.6,0-2.8-1.3-2.8-2.8v-56.4c0-1.6,1.3-2.8,2.8-2.8h130.3c1.6,0,2.8,1.3,2.8,2.8v56.4
			C340.6,331.9,339.4,333.2,337.8,333.2z"/>
		<g>
			<rect x="204.1" y="284.6" fill="none" width="135.8" height="40.4"/>
			<text transform="matrix(1 0 0 1 234.8604 294.586)"><tspan x="0" y="0" fill="#004E9A" font-family="'Lato-Bold'" font-size="14">Dale Roberts</tspan><tspan x="-4.5" y="22" fill="#004E9A" font-family="'Lato-Bold'" font-size="14">Patrick Forster</tspan></text>
		</g>
	</g>
</g>
<g>
	<g>
		<path fill="#004E9A" d="M473.1,263.1H352.3c-2.3,0-4.1-1.8-4.1-4.1v-36.2c0-2.3,1.8-4.1,4.1-4.1h120.8c2.3,0,4.1,1.8,4.1,4.1V259
			C477.2,261.2,475.4,263.1,473.1,263.1z"/>
		<g>
			<rect x="347.9" y="235.3" fill="none" width="128.7" height="21.1"/>
			<text transform="matrix(1 0 0 1 374.0704 245.2496)" fill="#FFFFFF" font-family="'Montserrat-Medium'" font-size="14">MARKETING</text>
		</g>
	</g>
	<g>
		<path fill="#FFFFFF" d="M474.4,333.2H351.2c-1.5,0-2.7-1.2-2.7-2.7v-56.6c0-1.5,1.2-2.7,2.7-2.7h123.3c1.5,0,2.7,1.2,2.7,2.7v56.6
			C477.2,331.9,476,333.2,474.4,333.2z"/>
		<g>
			<rect x="347.9" y="284.6" fill="none" width="128.7" height="40.4"/>
			<text transform="matrix(1 0 0 1 375.0411 294.5855)"><tspan x="0" y="0" fill="#004E9A" font-family="'Lato-Bold'" font-size="14">Dale Roberts</tspan><tspan x="9.6" y="22" fill="#004E9A" font-family="'Lato-Bold'" font-size="14">Dave Ellis</tspan></text>
		</g>
	</g>
</g>
<g>
	<g>
		<path fill="#004E9A" d="M581.1,263.1h-91.8c-2.3,0-4.1-1.8-4.1-4.1v-36.2c0-2.3,1.8-4.1,4.1-4.1h91.8c2.3,0,4.1,1.8,4.1,4.1V259
			C585.1,261.2,583.3,263.1,581.1,263.1z"/>
		<g>
			<rect x="485.5" y="235.3" fill="none" width="99" height="21.1"/>
			<text transform="matrix(1 0 0 1 503.8077 245.2496)" fill="#FFFFFF" font-family="'Montserrat-Medium'" font-size="14">TRAINING</text>
		</g>
	</g>
	<path fill="#FFFFFF" d="M582.8,333.2h-94.7c-1.3,0-2.4-1.1-2.4-2.4v-57.2c0-1.3,1.1-2.4,2.4-2.4h94.7c1.3,0,2.4,1.1,2.4,2.4v57.2
		C585.3,332.1,584.2,333.2,582.8,333.2z"/>
	<g>
		<rect x="485.3" y="296.3" fill="none" width="99.4" height="18.3"/>
		<text transform="matrix(1 0 0 1 506.7157 306.2454)" fill="#004E9A" font-family="'Lato-Bold'" font-size="14">Philip Lee</text>
	</g>
</g>
<g>
	<g>
		<path fill="#FFFFFF" d="M1077.5,333.2H925.7c-1.7,0-3-1.4-3-3v-56c0-1.7,1.4-3,3-3h151.9c1.7,0,3,1.4,3,3v56
			C1080.6,331.8,1079.2,333.2,1077.5,333.2z"/>
		<g>
			<rect x="933.7" y="296.3" fill="none" width="135.8" height="20.9"/>
			<text transform="matrix(1 0 0 1 974.0775 306.2452)" fill="#004E9A" font-family="'Lato-Bold'" font-size="14">Clare Ellis</text>
		</g>
	</g>
	<g>
		<path fill="#004E9A" d="M1076.5,263.1H926.7c-2.3,0-4.1-1.8-4.1-4.1v-36.2c0-2.3,1.8-4.1,4.1-4.1h149.8c2.3,0,4.1,1.8,4.1,4.1V259
			C1080.6,261.2,1078.7,263.1,1076.5,263.1z"/>
		<g>
			<rect x="922.9" y="235.3" fill="none" width="157.5" height="21.1"/>
			<text transform="matrix(1 0 0 1 944.8411 245.2496)" fill="#FFFFFF" font-family="'Montserrat-Medium'" font-size="14">ADMINISTRATION</text>
		</g>
	</g>
</g>
<g>
	<g>
		<path fill="#FFFFFF" d="M1194,333.2h-102.9c-1.4,0-2.5-1.1-2.5-2.5v-57c0-1.4,1.1-2.5,2.5-2.5H1194c1.4,0,2.5,1.1,2.5,2.5v57
			C1196.5,332,1195.4,333.2,1194,333.2z"/>
		<g>
			<rect x="1088.6" y="284.6" fill="none" width="107.9" height="38.2"/>
			<text transform="matrix(1 0 0 1 1123.6277 294.5855)"><tspan x="0" y="0" fill="#004E9A" font-family="'Lato-Bold'" font-size="14">Louise </tspan><tspan x="-6.2" y="22" fill="#004E9A" font-family="'Lato-Bold'" font-size="14">Rickhuss</tspan></text>
		</g>
	</g>
	<g>
		<path fill="#004E9A" d="M1192.4,263.1h-99.8c-2.3,0-4.1-1.8-4.1-4.1v-36.2c0-2.3,1.8-4.1,4.1-4.1h99.8c2.3,0,4.1,1.8,4.1,4.1V259
			C1196.5,261.2,1194.7,263.1,1192.4,263.1z"/>
		<g>
			<rect x="1088.9" y="235.3" fill="none" width="107" height="21.1"/>
			<text transform="matrix(1 0 0 1 1106.5087 245.2496)" fill="#FFFFFF" font-family="'Montserrat-Medium'" font-size="14">ACCOUNTS</text>
		</g>
	</g>
</g>
<g>
	<g>
		<g>
			<path fill="#004E9A" d="M457.4,462.4H208.6c-2.3,0-4.1-1.8-4.1-4.1v-36.2c0-2.3,1.8-4.1,4.1-4.1h248.8c2.3,0,4.1,1.8,4.1,4.1
				v36.2C461.5,460.5,459.6,462.4,457.4,462.4z"/>
			<g>
				<rect x="205.1" y="434.6" fill="none" width="255.7" height="21.1"/>
				<text transform="matrix(1 0 0 1 243.5448 444.5416)" fill="#FFFFFF" font-family="'Montserrat-Medium'" font-size="14">Project Design Manager</text>
			</g>
		</g>
	</g>
	<g>
		<g>
			<path fill="#FFFFFF" d="M457.4,514.4H208.6c-2.3,0-4.1-1.8-4.1-4.1v-36.2c0-2.3,1.8-4.1,4.1-4.1h248.8c2.3,0,4.1,1.8,4.1,4.1
				v36.2C461.5,512.5,459.6,514.4,457.4,514.4z"/>
			<g>
				<rect x="204.1" y="486.6" fill="none" width="256.7" height="21.1"/>
				<text transform="matrix(1 0 0 1 290.7632 496.5416)" fill="#004E9A" font-family="'Lato-Bold'" font-size="14">Patrick Forster</text>
			</g>
		</g>
	</g>
</g>
<line fill="none" stroke="#004E9A" stroke-linecap="round" stroke-linejoin="round" stroke-miterlimit="10" x1="700.7" y1="103.2" x2="700.7" y2="183.2"/>
<polyline fill="none" stroke="#004E9A" stroke-linecap="round" stroke-linejoin="round" stroke-miterlimit="10" points="1138,219.3 
	1138,183 274.7,183 274.7,220.5 "/>
<line fill="none" stroke="#004E9A" stroke-linecap="round" stroke-linejoin="round" stroke-miterlimit="10" x1="535.2" y1="183" x2="535.2" y2="224.4"/>
<line fill="none" stroke="#004E9A" stroke-linecap="round" stroke-linejoin="round" stroke-miterlimit="10" x1="668.9" y1="183" x2="668.9" y2="224.4"/>
<g>
	<polyline fill="none" stroke="#004E9A" stroke-linecap="round" stroke-linejoin="round" stroke-miterlimit="10" points="806,617.3 
		806,581 573.7,581 573.7,618.5 	"/>
	
		<line fill="none" stroke="#004E9A" stroke-linecap="round" stroke-linejoin="round" stroke-miterlimit="10" x1="700.7" y1="540.4" x2="700.7" y2="580.7"/>
</g>
<g>
	<polyline fill="none" stroke="#004E9A" stroke-linecap="round" stroke-linejoin="round" stroke-miterlimit="10" points="
		573.7,750.1 573.7,809.2 806,809.2 806,714.8 	"/>
	
		<line fill="none" stroke="#004E9A" stroke-linecap="round" stroke-linejoin="round" stroke-miterlimit="10" x1="700.7" y1="850.4" x2="700.7" y2="809.5"/>
</g>
<g>
	<polyline fill="none" stroke="#004E9A" stroke-linecap="round" stroke-linejoin="round" stroke-miterlimit="10" points="
		668.1,318.1 668.1,377.2 833.2,377.2 833.2,282.8 	"/>
	
		<line fill="none" stroke="#004E9A" stroke-linecap="round" stroke-linejoin="round" stroke-miterlimit="10" x1="700.7" y1="418.4" x2="700.7" y2="377.5"/>
</g>
<line fill="none" stroke="#004E9A" stroke-linecap="round" stroke-linejoin="round" stroke-miterlimit="10" x1="832.9" y1="183" x2="832.9" y2="224.4"/>
<line fill="none" stroke="#004E9A" stroke-linecap="round" stroke-linejoin="round" stroke-miterlimit="10" x1="1001.6" y1="183" x2="1001.6" y2="224.4"/>
<line fill="none" stroke="#004E9A" stroke-linecap="round" stroke-linejoin="round" stroke-miterlimit="10" x1="412.5" y1="183" x2="412.5" y2="224.4"/>
<line fill="none" stroke="#004E9A" stroke-linecap="round" stroke-linejoin="round" stroke-miterlimit="10" x1="272.4" y1="332.8" x2="272.4" y2="417.2"/>
<g>
	<g>
		<path fill="#FFFFFF" d="M766.2,142.7H635.9c-1.6,0-2.8-1.3-2.8-2.8V83.5c0-1.6,1.3-2.8,2.8-2.8h130.3c1.6,0,2.8,1.3,2.8,2.8v56.4
			C769,141.4,767.7,142.7,766.2,142.7z"/>
		<g>
			<rect x="632.4" y="96.2" fill="none" width="135.8" height="39.9"/>
			<text transform="matrix(1 0 0 1 647.4769 106.0943)"><tspan x="0" y="0" fill="#004E9A" font-family="'Lato-Bold'" font-size="14">Mike Rockey BEng</tspan><tspan x="29.2" y="22" fill="#363636" font-family="'Lato-Bold'" font-size="14">Director</tspan></text>
		</g>
	</g>
	<g>
		<path fill="#FFFFFF" d="M621.6,142.7H491.3c-1.6,0-2.8-1.3-2.8-2.8V83.5c0-1.6,1.3-2.8,2.8-2.8h130.3c1.6,0,2.8,1.3,2.8,2.8v56.4
			C624.4,141.4,623.2,142.7,621.6,142.7z"/>
		<g>
			<rect x="487.9" y="96.2" fill="none" width="135.8" height="39.9"/>
			<text transform="matrix(1 0 0 1 509.9266 106.0943)"><tspan x="0" y="0" fill="#004E9A" font-family="'Lato-Bold'" font-size="14">Dave Ellis MEng</tspan><tspan x="-8.9" y="22" fill="#363636" font-family="'Lato-Bold'" font-size="14">Managing Director</tspan></text>
		</g>
	</g>
	<g>
		<path fill="#FFFFFF" d="M910.7,142.7H780.4c-1.6,0-2.8-1.3-2.8-2.8V83.5c0-1.6,1.3-2.8,2.8-2.8h130.3c1.6,0,2.8,1.3,2.8,2.8v56.4
			C913.5,141.4,912.3,142.7,910.7,142.7z"/>
		<g>
			<rect x="777" y="96.2" fill="none" width="135.8" height="39.9"/>
			<text transform="matrix(1 0 0 1 807.7491 106.0943)"><tspan x="0" y="0" fill="#004E9A" font-family="'Lato-Bold'" font-size="14">Dale Roberts</tspan><tspan x="-17.6" y="22" fill="#363636" font-family="'Lato-Bold'" font-size="14">Managing Director</tspan></text>
		</g>
	</g>
</g>
<line fill="none" stroke="#004E9A" stroke-linecap="round" stroke-linejoin="round" stroke-miterlimit="10" x1="460.5" y1="439.5" x2="600.9" y2="439.5"/>
<g>
	<path fill="#004E9A" d="M672.7,662.4H487.7c-2.5,0-4.5-2-4.5-4.5v-35.3c0-2.5,2-4.5,4.5-4.5h185.1c2.5,0,4.5,2,4.5,4.5v35.3
		C677.3,660.4,675.2,662.4,672.7,662.4z"/>
	<g>
		<rect x="483.5" y="634.7" fill="none" width="193.6" height="21.1"/>
		<text transform="matrix(1 0 0 1 513.4525 644.6031)" fill="#FFFFFF" font-family="'Montserrat-Medium'" font-size="14">PROJECT MANAGERS</text>
	</g>
</g>
<g>
	<path fill="#004E9A" d="M914.3,662.4H690.6c-2.7,0-5-2.2-5-5V623c0-2.7,2.2-5,5-5h223.7c2.7,0,5,2.2,5,5v34.4
		C919.3,660.2,917,662.4,914.3,662.4z"/>
	<g>
		<rect x="686.1" y="634.7" fill="none" width="233" height="21.1"/>
		<text transform="matrix(1 0 0 1 740.1971 644.6026)" fill="#FFFFFF" font-family="'Montserrat-Medium'" font-size="14">PROJECT ENGINEER</text>
	</g>
</g>
<g>
	<path fill="#004E9A" d="M806.6,463.8l-211.8-1.5c-2.3,0-4.1-1.9-4.1-4.1L591,422c0-2.3,1.9-4.1,4.1-4.1l211.8,1.5
		c2.3,0,4.1,1.9,4.1,4.1l-0.2,36.2C810.7,462,808.9,463.9,806.6,463.8z"/>
	<g>
		
			<rect x="591.5" y="435.4" transform="matrix(1 6.594879e-03 -6.594879e-03 1 2.9562 -4.6121)" fill="none" width="218.6" height="21.1"/>
		
			<text transform="matrix(1 6.590000e-03 -6.590000e-03 1 626.9777 444.8449)" fill="#FFFFFF" font-family="'Montserrat-Medium'" font-size="14">CONTRACTS Manager</text>
	</g>
	<g>
		<g>
			<path fill="#FFFFFF" d="M805.7,540.4H596c-2.8,0-5.1-2.3-5.1-5.1v-59.6c0-2.8,2.3-5.1,5.1-5.1h209.7c2.8,0,5.1,2.3,5.1,5.1v59.6
				C810.8,538.2,808.5,540.4,805.7,540.4z"/>
			<g>
				<rect x="590.5" y="487.2" fill="none" width="219.7" height="60.9"/>
				<text transform="matrix(1 0 0 1 672.7584 497.183)"><tspan x="0" y="0" fill="#004E9A" font-family="'Lato-Bold'" font-size="14">Dave Ellis</tspan><tspan x="-8.8" y="22" fill="#004E9A" font-family="'Lato-Bold'" font-size="14">Mike Rockey</tspan></text>
			</g>
		</g>
	</g>
</g>
<g>
	<g>
		<g>
			<g>
				<path fill="#FFFFFF" d="M671.7,763.7H488.6c-3.3,0-5.9-2.6-5.9-5.9v-81.2c0-3.3,2.6-5.9,5.9-5.9h183.1c3.3,0,5.9,2.6,5.9,5.9
					v81.2C677.6,761,674.9,763.7,671.7,763.7z"/>
				<g>
					<rect x="482.2" y="687.3" fill="none" width="194.7" height="68.9"/>
					<text transform="matrix(1 0 0 1 551.2455 697.2448)"><tspan x="0" y="0" fill="#004E9A" font-family="'Lato-Bold'" font-size="14">Philip Lee</tspan><tspan x="-28.7" y="22" fill="#004E9A" font-family="'Lato-Bold'" font-size="14">Simon Mastermann</tspan><tspan x="-5" y="44" fill="#004E9A" font-family="'Lato-Bold'" font-size="14">Carle Stone</tspan></text>
				</g>
			</g>
		</g>
	</g>
	<g>
		<path fill="#FFFFFF" d="M914.9,716.5H690.3c-2.3,0-4.2-1.9-4.2-4.2v-37.5c0-2.3,1.9-4.2,4.2-4.2h224.7c2.3,0,4.2,1.9,4.2,4.2v37.5
			C919.1,714.7,917.2,716.5,914.9,716.5z"/>
		<g>
			<rect x="685.7" y="687.3" fill="none" width="232.7" height="21.9"/>
			<text transform="matrix(1 0 0 1 767.0936 697.2438)" fill="#004E9A" font-family="'Lato-Bold'" font-size="14">Ben Haskins</text>
		</g>
	</g>
</g>
<g>
	<g>
		<path fill="#004E9A" d="M1048,1021.1H853.8c-2.6,0-4.7-2.1-4.7-4.7v-34.9c0-2.6,2.1-4.7,4.7-4.7H1048c2.6,0,4.7,2.1,4.7,4.7v34.9
			C1052.7,1019,1050.6,1021.1,1048,1021.1z"/>
		<g>
			<rect x="849.1" y="993.3" fill="none" width="203.4" height="21.1"/>
			<text transform="matrix(1 0 0 1 879.7397 1003.2842)" fill="#FFFFFF" font-family="'Montserrat-Medium'" font-size="14">GENERAL OPERATIVES</text>
		</g>
	</g>
	<g>
		<path fill="#004E9A" d="M1048,947.6H853.8c-2.6,0-4.7-2.1-4.7-4.7v-34.9c0-2.6,2.1-4.7,4.7-4.7H1048c2.6,0,4.7,2.1,4.7,4.7v34.9
			C1052.7,945.5,1050.6,947.6,1048,947.6z"/>
		<g>
			<rect x="849.1" y="919.8" fill="none" width="203.4" height="21.1"/>
			<text transform="matrix(1 0 0 1 883.478 929.7537)" fill="#FFFFFF" font-family="'Montserrat-Medium'" font-size="14">SKILLED OPERATIVES</text>
		</g>
	</g>
	<g>
		<path fill="#004E9A" d="M1048,1094.6H853.8c-2.6,0-4.7-2.1-4.7-4.7V1055c0-2.6,2.1-4.7,4.7-4.7H1048c2.6,0,4.7,2.1,4.7,4.7v34.9
			C1052.7,1092.5,1050.6,1094.6,1048,1094.6z"/>
		<g>
			<rect x="849.1" y="1066.9" fill="none" width="203.4" height="21.1"/>
			<text transform="matrix(1 0 0 1 887.1596 1076.8137)" fill="#FFFFFF" font-family="'Montserrat-Medium'" font-size="14">SUB-CONTRACTORS</text>
		</g>
	</g>
	
		<line fill="none" stroke="#004E9A" stroke-linecap="round" stroke-linejoin="round" stroke-miterlimit="10" x1="854.3" y1="924.2" x2="777.2" y2="924.2"/>
	
		<line fill="none" stroke="#004E9A" stroke-linecap="round" stroke-linejoin="round" stroke-miterlimit="10" x1="854.3" y1="998.7" x2="777.2" y2="998.7"/>
	
		<line fill="none" stroke="#004E9A" stroke-linecap="round" stroke-linejoin="round" stroke-miterlimit="10" x1="854.3" y1="1071.4" x2="777.2" y2="1071.4"/>
	<g>
		<path fill="#FFFFFF" d="M779.6,1094.6h-158c-4.7,0-8.5-3.8-8.5-8.5V911.7c0-4.7,3.8-8.5,8.5-8.5h158c4.7,0,8.5,3.8,8.5,8.5v174.5
			C788.1,1090.8,784.3,1094.6,779.6,1094.6z"/>
		<g>
			<rect x="611.7" y="922.8" fill="none" width="175.7" height="173.9"/>
			<text transform="matrix(1 0 0 1 655.2357 932.7564)"><tspan x="0" y="0" fill="#004E9A" font-family="'Lato-Bold'" font-size="14">Gary W-Clinton</tspan><tspan x="9" y="22" fill="#004E9A" font-family="'Lato-Bold'" font-size="14">Dean Kenny</tspan><tspan x="2.1" y="44" fill="#004E9A" font-family="'Lato-Bold'" font-size="14">Mike Reynolds</tspan><tspan x="2.8" y="66" fill="#004E9A" font-family="'Lato-Bold'" font-size="14">John Kennedy</tspan><tspan x="4.5" y="88" fill="#004E9A" font-family="'Lato-Bold'" font-size="14">Dean Holland</tspan><tspan x="8.5" y="110" fill="#004E9A" font-family="'Lato-Bold'" font-size="14">Mike Lander</tspan><tspan x="-8.1" y="132" fill="#004E9A" font-family="'Lato-Bold'" font-size="14">Simon Lethbridge</tspan></text>
		</g>
		<g>
			<path fill="#004E9A" d="M785,894.9H616.8c-2.6,0-4.7-2.1-4.7-4.7v-34.9c0-2.6,2.1-4.7,4.7-4.7H785c2.6,0,4.7,2.1,4.7,4.7v34.9
				C789.7,892.8,787.6,894.9,785,894.9z"/>
			<g>
				<rect x="612.5" y="867.2" fill="none" width="177" height="21.1"/>
				<text transform="matrix(1 0 0 1 649.0892 877.1131)" fill="#FFFFFF" font-family="'Montserrat-Medium'" font-size="14">SITE MANAGERS</text>
			</g>
		</g>
	</g>
</g>
<g>
	<g>
		<path fill="#004E9A" d="M910.5,263.1H755.8c-2.3,0-4.1-1.8-4.1-4.1v-36.2c0-2.3,1.8-4.1,4.1-4.1h154.8c2.3,0,4.1,1.8,4.1,4.1V259
			C914.6,261.2,912.8,263.1,910.5,263.1z"/>
		<g>
			<rect x="751.1" y="235.3" fill="none" width="162.8" height="21.1"/>
			<text transform="matrix(1 0 0 1 774.7199 245.2496)" fill="#FFFFFF" font-family="'Montserrat-Medium'" font-size="14">HEALTH &amp; SAFETY</text>
		</g>
	</g>
	<g>
		<path fill="#FFFFFF" d="M911.5,333.2H754.2c-1.7,0-3.1-1.4-3.1-3.1v-55.9c0-1.7,1.4-3.1,3.1-3.1h157.3c1.7,0,3.1,1.4,3.1,3.1v55.9
			C914.6,331.8,913.2,333.2,911.5,333.2z"/>
		<g>
			<rect x="764.9" y="296.3" fill="none" width="135.8" height="26.9"/>
			<text transform="matrix(1 0 0 1 787.2029 306.2452)" fill="#004E9A" font-family="'Lato-Bold'" font-size="14">(BSG) Chris May</text>
		</g>
	</g>
</g>
<g>
	<g>
		<path fill="#FFFFFF" d="M741.7,333.2h-144c-1.6,0-3-1.3-3-3v-56.1c0-1.6,1.3-3,3-3h144c1.6,0,3,1.3,3,3v56.1
			C744.6,331.8,743.3,333.2,741.7,333.2z"/>
		<g>
			<rect x="601.7" y="284.6" fill="none" width="135.8" height="40.4"/>
			<text transform="matrix(1 0 0 1 642.1042 294.586)"><tspan x="0" y="0" fill="#004E9A" font-family="'Lato-Bold'" font-size="14">Dave Ellis</tspan><tspan x="-8.8" y="22" fill="#004E9A" font-family="'Lato-Bold'" font-size="14">Mike Rockey</tspan></text>
		</g>
	</g>
	<g>
		<path fill="#004E9A" d="M739,263.1H597.2c-2.3,0-4.1-1.8-4.1-4.1v-36.2c0-2.3,1.8-4.1,4.1-4.1H739c2.3,0,4.1,1.8,4.1,4.1V259
			C743.1,261.2,741.3,263.1,739,263.1z"/>
		<g>
			<rect x="593.4" y="235.3" fill="none" width="149.3" height="21.1"/>
			<text transform="matrix(1 0 0 1 616.7227 245.2496)" fill="#FFFFFF" font-family="'Montserrat-Medium'" font-size="14">CONSTRUCTION</text>
		</g>
	</g>
</g>
</svg>
